<svg xmlns="http://www.w3.org/2000/svg" width="16" height="16" viewBox="0 0 16 16">
    <path fill="#8AA385" fill-rule="nonzero" d="M9.268 7.996l5.66-5.66a.9.9 0 1 0-1.273-1.272l-5.66 5.66-5.659-5.66a.9.9 0 1 0-1.272 1.273l5.66 5.659-5.66 5.659a.9.9 0 1 0 1.272 1.272l5.66-5.659 5.659 5.66a.897.897 0 0 0 1.273 0 .9.9 0 0 0 0-1.273l-5.66-5.66z"/>
</svg>
