<svg xmlns="http://www.w3.org/2000/svg" width="23" height="23" viewBox="0 0 23 23">
    <path fill="#FFF" fill-rule="nonzero" stroke="#FFF" stroke-width="0" d="M11.439 5.277c.823-1.951 2.704-3.314 4.89-3.314 2.947 0 5.07 2.52 5.336 5.524 0 0 .144.746-.173 2.088-.431 1.829-1.446 3.453-2.814 4.693l-7.24 6.459-7.117-6.46c-1.367-1.239-2.382-2.864-2.814-4.692-.316-1.343-.172-2.088-.172-2.088C1.6 4.483 3.723 1.962 6.67 1.962c2.187 0 3.946 1.364 4.769 3.315z"/>
</svg>
